{
  "items": [
    {
      "state_reason": null,
      "tasks": {
        "rpms": {
          "attr": {
            "state": 1,
            "nvr": "attr-2.4.47-21.el8+4f3ed7d2",
            "task_id": 14673135,
            "state_reason": "Reused component from previous module build"
          },
          "tar": {
            "state": 1,
            "nvr": "tar-1.29-7.el8+4f3ed7d2",
            "task_id": 14673557,
            "state_reason": "Reused component from previous module build"
          },
          "acl": {
            "state": 1,
            "nvr": "acl-2.2.52-18.el8+4f3ed7d2",
            "task_id": 14673370,
            "state_reason": "Reused component from previous module build"
          }
        }
      },
      "name": "testmodule",
      "stream": "rhel-8.0",
      "time_submitted": "2018-02-19T13:11:36Z",
      "version": "20180219131131",
      "time_modified": "2018-02-19T13:13:05Z",
      "state_name": "ready",
      "scmurl": "git://git.example.com/modules/testmodule?#9a1957e17ff2916c3d12ba024f67082247001a0a",
      "state": 5,
      "time_completed": "2018-02-19T13:12:45Z",
      "koji_tag": "module-497cc21805cc93b1",
      "context": "9e5fe74b",
      "owner": "mprahl",
      "id": 329,
      "rebuild_strategy": "only-changed"
    },
    {
      "state_reason": null,
      "tasks": {
        "rpms": {
          "attr": {
            "state": 1,
            "nvr": "attr-2.4.47-21.el8+4f3ed7d2",
            "task_id": 14673135,
            "state_reason": "Reused component from previous module build"
          },
          "tar": {
            "state": 1,
            "nvr": "tar-1.29-7.el8+4f3ed7d2",
            "task_id": 14673557,
            "state_reason": "Reused component from previous module build"
          },
          "acl": {
            "state": 1,
            "nvr": "acl-2.2.52-18.el8+4f3ed7d2",
            "task_id": 14673370,
            "state_reason": "Reused component from previous module build"
          }
        }
      },
      "name": "testmodule",
      "stream": "rhel-8.0",
      "time_submitted": "2018-02-16T16:30:34Z",
      "version": "20180216163024",
      "time_modified": "2018-02-16T16:31:38Z",
      "state_name": "ready",
      "scmurl": "git://git.example.com/modules/testmodule?#a4a0b178edc6bf4d13a3850cefcfeb229838887f",
      "state": 5,
      "time_completed": "2018-02-16T16:31:27Z",
      "koji_tag": "module-aaf06184c11b5b93",
      "context": "9e5fe74b",
      "owner": "mprahl",
      "id": 327,
      "rebuild_strategy": "only-changed"
    },
    {
      "state_reason": null,
      "tasks": {
        "rpms": {
          "attr": {
            "state": 1,
            "nvr": "attr-2.4.47-21.el8+4f3ed7d2",
            "task_id": 14673135,
            "state_reason": "Reused component from previous module build"
          },
          "tar": {
            "state": 1,
            "nvr": "tar-1.29-7.el8+4f3ed7d2",
            "task_id": 14673557,
            "state_reason": "Reused component from previous module build"
          },
          "acl": {
            "state": 1,
            "nvr": "acl-2.2.52-18.el8+4f3ed7d2",
            "task_id": 14673370,
            "state_reason": "Reused component from previous module build"
          }
        }
      },
      "name": "testmodule",
      "stream": "rhel-8.0",
      "time_submitted": "2018-02-14T13:53:57Z",
      "version": "20180214135348",
      "time_modified": "2018-02-14T13:55:05Z",
      "state_name": "ready",
      "scmurl": "git://git.example.com/modules/testmodule?#d9fbadfc9116394bdfcd118d2837d0c54b1e80be",
      "state": 5,
      "time_completed": "2018-02-14T13:54:54Z",
      "koji_tag": "module-39801baf83d07771",
      "context": "9e5fe74b",
      "owner": "mprahl",
      "id": 325,
      "rebuild_strategy": "only-changed"
    },
    {
      "state_reason": null,
      "tasks": {
        "rpms": {
          "attr": {
            "state": 1,
            "nvr": "attr-2.4.47-21.el8+4f3ed7d2",
            "task_id": 14673135,
            "state_reason": "Reused component from previous module build"
          },
          "tar": {
            "state": 1,
            "nvr": "tar-1.29-7.el8+4f3ed7d2",
            "task_id": 14673557,
            "state_reason": "Reused component from previous module build"
          },
          "acl": {
            "state": 1,
            "nvr": "acl-2.2.52-18.el8+4f3ed7d2",
            "task_id": 14673370,
            "state_reason": "Reused component from previous module build"
          }
        }
      },
      "name": "testmodule",
      "stream": "rhel-8.0",
      "time_submitted": "2018-02-10T18:53:07Z",
      "version": "20180210185249",
      "time_modified": "2018-02-10T18:54:05Z",
      "state_name": "ready",
      "scmurl": "git://git.example.com/modules/testmodule?#11aeb6ec40cd401fb1c4ed2bd4c3f6842f0b6a5c",
      "state": 5,
      "time_completed": "2018-02-10T18:53:45Z",
      "koji_tag": "module-05918a085ec2a30f",
      "context": "9e5fe74b",
      "owner": "vvasilev",
      "id": 319,
      "rebuild_strategy": "only-changed"
    },
    {
      "state_reason": null,
      "tasks": {
        "rpms": {
          "attr": {
            "state": 1,
            "nvr": "attr-2.4.47-21.el8+4f3ed7d2",
            "task_id": 14673135,
            "state_reason": "Reused component from previous module build"
          },
          "tar": {
            "state": 1,
            "nvr": "tar-1.29-7.el8+4f3ed7d2",
            "task_id": 14673557,
            "state_reason": "Reused component from previous module build"
          },
          "acl": {
            "state": 1,
            "nvr": "acl-2.2.52-18.el8+4f3ed7d2",
            "task_id": 14673370,
            "state_reason": "Reused component from previous module build"
          }
        }
      },
      "name": "testmodule",
      "stream": "rhel-8.0",
      "time_submitted": "2018-02-07T16:04:48Z",
      "version": "20180207160431",
      "time_modified": "2018-02-07T16:07:20Z",
      "state_name": "ready",
      "scmurl": "git://git.example.com/modules/testmodule?#6fd8738fbb89bde67778713881d4090c71335a24",
      "state": 5,
      "time_completed": "2018-02-07T16:06:49Z",
      "koji_tag": "module-6754a86de532ca62",
      "context": "9e5fe74b",
      "owner": "vvasilev",
      "id": 313,
      "rebuild_strategy": "only-changed"
    },
    {
      "state_reason": "Canceled by rbean.",
      "tasks": {},
      "name": "testmodule",
      "stream": "rhel-8.0",
      "time_submitted": "2018-02-01T18:50:16Z",
      "version": "20180201185002",
      "time_modified": "2018-02-02T13:49:12Z",
      "state_name": "failed",
      "scmurl": "git://git.example.com/modules/testmodule?#4d50c220397b814ad716100b03d69cc263ebd630",
      "state": 4,
      "time_completed": "2018-02-02T13:49:12Z",
      "koji_tag": null,
      "context": "00000000",
      "owner": "rbean",
      "id": 304,
      "rebuild_strategy": "only-changed"
    },
    {
      "state_reason": "Canceled by rbean.",
      "tasks": {},
      "name": "testmodule",
      "stream": "rhel-8.0",
      "time_submitted": "2018-02-01T17:52:42Z",
      "version": "20180201175226",
      "time_modified": "2018-02-02T13:54:10Z",
      "state_name": "failed",
      "scmurl": "git://git.example.com/modules/testmodule?#a5b86e67259b6090696124b2e003b61c4c5d3215",
      "state": 4,
      "time_completed": "2018-02-02T13:54:10Z",
      "koji_tag": null,
      "context": "00000000",
      "owner": "rbean",
      "id": 303,
      "rebuild_strategy": "only-changed"
    },
    {
      "state_reason": null,
      "tasks": {
        "rpms": {
          "module-build-macros": {
            "state": 1,
            "nvr": "module-build-macros-0.1-1.el8+4f3ed7d2",
            "task_id": 14673044,
            "state_reason": ""
          },
          "attr": {
            "state": 1,
            "nvr": "attr-2.4.47-21.el8+4f3ed7d2",
            "task_id": 14673135,
            "state_reason": ""
          },
          "tar": {
            "state": 1,
            "nvr": "tar-1.29-7.el8+4f3ed7d2",
            "task_id": 14673557,
            "state_reason": ""
          },
          "acl": {
            "state": 1,
            "nvr": "acl-2.2.52-18.el8+4f3ed7d2",
            "task_id": 14673370,
            "state_reason": ""
          }
        }
      },
      "name": "testmodule",
      "stream": "rhel-8.0",
      "time_submitted": "2017-12-04T13:36:34Z",
      "version": "20171204133622",
      "time_modified": "2017-12-04T14:33:39Z",
      "state_name": "ready",
      "scmurl": "git://git.example.com/modules/testmodule?#205d563f65ec2e99031c7983a4dccb025fe14378",
      "state": 5,
      "time_completed": "2017-12-04T14:33:27Z",
      "koji_tag": "module-4f3ed7d219ce7988",
      "context": "9e5fe74b",
      "owner": "mprahl",
      "id": 272,
      "rebuild_strategy": "all"
    },
    {
      "state_reason": null,
      "tasks": {
        "rpms": {
          "attr": {
            "state": 1,
            "nvr": "attr-2.4.47-21.el8+a13a2d1b",
            "task_id": 14569923,
            "state_reason": "Reused component from previous module build"
          },
          "tar": {
            "state": 1,
            "nvr": "tar-1.29-7.el8+a13a2d1b",
            "task_id": 14570100,
            "state_reason": "Reused component from previous module build"
          },
          "acl": {
            "state": 1,
            "nvr": "acl-2.2.52-18.el8+a13a2d1b",
            "task_id": 14569987,
            "state_reason": "Reused component from previous module build"
          }
        }
      },
      "name": "testmodule",
      "stream": "rhel-8.0",
      "time_submitted": "2017-12-04T13:34:55Z",
      "version": "20171129184413",
      "time_modified": "2017-12-04T13:35:58Z",
      "state_name": "ready",
      "scmurl": "git://git.example.com/modules/testmodule?#cbe9e60ed323257b788936b32dba8815ef6b649d",
      "state": 5,
      "time_completed": "2017-12-04T13:35:46Z",
      "koji_tag": "module-e1039f2d79cdd168",
      "context": "9e5fe74b",
      "owner": "mprahl",
      "id": 271,
      "rebuild_strategy": "only-changed"
    },
    {
      "state_reason": null,
      "tasks": {
        "rpms": {
          "module-build-macros": {
            "state": 1,
            "nvr": "module-build-macros-0.1-1.el8+a13a2d1b",
            "task_id": 14569690,
            "state_reason": ""
          },
          "attr": {
            "state": 1,
            "nvr": "attr-2.4.47-21.el8+a13a2d1b",
            "task_id": 14569923,
            "state_reason": ""
          },
          "tar": {
            "state": 1,
            "nvr": "tar-1.29-7.el8+a13a2d1b",
            "task_id": 14570100,
            "state_reason": ""
          },
          "acl": {
            "state": 1,
            "nvr": "acl-2.2.52-18.el8+a13a2d1b",
            "task_id": 14569987,
            "state_reason": ""
          }
        }
      },
      "name": "testmodule",
      "stream": "rhel-8.0",
      "time_submitted": "2017-11-16T14:09:44Z",
      "version": "20171116140940",
      "time_modified": "2017-11-16T15:05:22Z",
      "state_name": "ready",
      "scmurl": "git://git.example.com/modules/testmodule?#ec3d511a34887e31540400d125aedbfb1076195a",
      "state": 5,
      "time_completed": "2017-11-16T15:05:12Z",
      "koji_tag": "module-a13a2d1bf0f0c0c8",
      "context": "9e5fe74b",
      "owner": "mprahl",
      "id": 260,
      "rebuild_strategy": "all"
    }
  ],
  "meta": {
    "prev": "https://mbs.example.com/module-build-service/1/module-builds/?per_page=10&page=1&name=testmodule",
    "last": "https://mbs.example.com/module-build-service/1/module-builds/?per_page=10&page=3&name=testmodule",
    "next": "https://mbs.example.com/module-build-service/1/module-builds/?per_page=10&page=3&name=testmodule",
    "total": 27,
    "per_page": 10,
    "first": "https://mbs.example.com/module-build-service/1/module-builds/?per_page=10&page=1&name=testmodule",
    "pages": 3,
    "page": 2
  }
}