{
  "items": [
    {
      "state_reason": null,
      "tasks": {
        "rpms": {
          "attr": {
            "state": 1,
            "nvr": "attr-2.4.47-21.el8+d1728e3a",
            "task_id": 14516025,
            "state_reason": "Reused component from previous module build"
          },
          "tar": {
            "state": 1,
            "nvr": "tar-1.29-7.el8+e0edb787",
            "task_id": 14147157,
            "state_reason": "Reused component from previous module build"
          },
          "acl": {
            "state": 1,
            "nvr": "acl-2.2.52-18.el8+e0edb787",
            "task_id": 14147087,
            "state_reason": "Reused component from previous module build"
          }
        }
      },
      "name": "testmodule",
      "stream": "rhel-8.0",
      "time_submitted": "2017-11-16T13:46:17Z",
      "version": "20171116134224",
      "time_modified": "2017-11-16T13:47:17Z",
      "state_name": "ready",
      "scmurl": "git://git.example.com/modules/testmodule?#008852fece29968e369e2b9497b8fe559453b366",
      "state": 5,
      "time_completed": "2017-11-16T13:47:04Z",
      "koji_tag": "module-710588a4a48dcf1e",
      "context": "9e5fe74b",
      "owner": "mprahl",
      "id": 259,
      "rebuild_strategy": "only-changed"
    },
    {
      "state_reason": null,
      "tasks": {
        "rpms": {
          "module-build-macros": {
            "state": 1,
            "nvr": "module-build-macros-0.1-1.el8+d1728e3a",
            "task_id": 14515538,
            "state_reason": ""
          },
          "attr": {
            "state": 1,
            "nvr": "attr-2.4.47-21.el8+d1728e3a",
            "task_id": 14516025,
            "state_reason": ""
          },
          "tar": {
            "state": 1,
            "nvr": "tar-1.29-7.el8+e0edb787",
            "task_id": 14147157,
            "state_reason": "Reused component from previous module build"
          },
          "acl": {
            "state": 1,
            "nvr": "acl-2.2.52-18.el8+e0edb787",
            "task_id": 14147087,
            "state_reason": "Reused component from previous module build"
          }
        }
      },
      "name": "testmodule",
      "stream": "rhel-8.0",
      "time_submitted": "2017-11-09T14:16:13Z",
      "version": "20171109141604",
      "time_modified": "2017-11-09T14:57:59Z",
      "state_name": "ready",
      "scmurl": "git://git.example.com/modules/testmodule?#4c68d6ea9d0adade86f50109831881eed1b3a28a",
      "state": 5,
      "time_completed": "2017-11-09T14:57:47Z",
      "koji_tag": "module-d1728e3a712793dd",
      "context": "9e5fe74b",
      "owner": "mprahl",
      "id": 255,
      "rebuild_strategy": "only-changed"
    },
    {
      "state_reason": null,
      "tasks": {
        "rpms": {
          "attr": {
            "state": 1,
            "nvr": "attr-2.4.47-21.el8+e0edb787",
            "task_id": 14147005,
            "state_reason": "Reused component from previous module build"
          },
          "tar": {
            "state": 1,
            "nvr": "tar-1.29-7.el8+e0edb787",
            "task_id": 14147157,
            "state_reason": "Reused component from previous module build"
          },
          "acl": {
            "state": 1,
            "nvr": "acl-2.2.52-18.el8+e0edb787",
            "task_id": 14147087,
            "state_reason": "Reused component from previous module build"
          }
        }
      },
      "name": "testmodule",
      "stream": "rhel-8.0",
      "time_submitted": "2017-11-09T14:13:58Z",
      "version": "20171109141304",
      "time_modified": "2017-11-09T14:14:48Z",
      "state_name": "ready",
      "scmurl": "git://git.example.com/modules/testmodule?#5f93ee37640cfab94f823f946867c2b7c1558a38",
      "state": 5,
      "time_completed": "2017-11-09T14:14:37Z",
      "koji_tag": "module-03d4509d955ec7a8",
      "context": "9e5fe74b",
      "owner": "mprahl",
      "id": 254,
      "rebuild_strategy": "only-changed"
    },
    {
      "state_reason": "The module was garbage collected since it has failed over 180 day(s) ago",
      "tasks": {
        "rpms": {
          "attr": {
            "state": 1,
            "nvr": "attr-2.4.47-21.el8+e0edb787",
            "task_id": 14147005,
            "state_reason": "Reused component from previous module build"
          },
          "tar": {
            "state": 1,
            "nvr": "tar-1.29-7.el8+e0edb787",
            "task_id": 14147157,
            "state_reason": "Reused component from previous module build"
          },
          "acl": {
            "state": 1,
            "nvr": "acl-2.2.52-18.el8+e0edb787",
            "task_id": 14147087,
            "state_reason": "Reused component from previous module build"
          }
        }
      },
      "name": "testmodule",
      "stream": "rhel-8.0",
      "time_submitted": "2017-11-07T15:07:07Z",
      "version": "20171107150639",
      "time_modified": "2018-05-06T15:13:50Z",
      "state_name": "garbage",
      "scmurl": "git://git.example.com/modules/testmodule?#fd25dcceaa39d8bb51b5f787fe7f42eddf24dc0a",
      "state": 6,
      "time_completed": "2017-11-07T15:08:03Z",
      "koji_tag": "module-e69b35bdf9852273",
      "context": "9e5fe74b",
      "owner": "mprahl",
      "id": 247,
      "rebuild_strategy": "changed-and-after"
    },
    {
      "state_reason": null,
      "tasks": {
        "rpms": {
          "attr": {
            "state": 1,
            "nvr": "attr-2.4.47-21.el8+e0edb787",
            "task_id": 14147005,
            "state_reason": "Reused component from previous module build"
          },
          "tar": {
            "state": 1,
            "nvr": "tar-1.29-7.el8+e0edb787",
            "task_id": 14147157,
            "state_reason": "Reused component from previous module build"
          },
          "acl": {
            "state": 1,
            "nvr": "acl-2.2.52-18.el8+e0edb787",
            "task_id": 14147087,
            "state_reason": "Reused component from previous module build"
          }
        }
      },
      "name": "testmodule",
      "stream": "rhel-8.0",
      "time_submitted": "2017-11-07T15:04:45Z",
      "version": "20171106160301",
      "time_modified": "2017-11-07T15:05:29Z",
      "state_name": "ready",
      "scmurl": "git://git.example.com/modules/testmodule?#d338a77f3cba04f1be0d399f495cdfc71465f6af",
      "state": 5,
      "time_completed": "2017-11-07T15:05:19Z",
      "koji_tag": "module-536a1b6e7e6add45",
      "context": "9e5fe74b",
      "owner": "mprahl",
      "id": 246,
      "rebuild_strategy": "changed-and-after"
    },
    {
      "state_reason": null,
      "tasks": {
        "rpms": {
          "module-build-macros": {
            "state": 1,
            "nvr": "module-build-macros-0.1-1.el8+e0edb787",
            "task_id": 14146931,
            "state_reason": ""
          },
          "attr": {
            "state": 1,
            "nvr": "attr-2.4.47-21.el8+e0edb787",
            "task_id": 14147005,
            "state_reason": ""
          },
          "tar": {
            "state": 1,
            "nvr": "tar-1.29-7.el8+e0edb787",
            "task_id": 14147157,
            "state_reason": ""
          },
          "acl": {
            "state": 1,
            "nvr": "acl-2.2.52-18.el8+e0edb787",
            "task_id": 14147087,
            "state_reason": ""
          }
        }
      },
      "name": "testmodule",
      "stream": "rhel-8.0",
      "time_submitted": "2017-09-29T17:26:58Z",
      "version": "20170929172622",
      "time_modified": "2017-09-29T18:21:40Z",
      "state_name": "ready",
      "scmurl": "git://git.example.com/modules/testmodule?#711dc768515ac61f0937e1a2e61b685fc55c0075",
      "state": 5,
      "time_completed": "2017-09-29T18:21:28Z",
      "koji_tag": "module-e0edb7870a81b3c5",
      "context": "9e5fe74b",
      "owner": "mikeb",
      "id": 2,
      "rebuild_strategy": "changed-and-after"
    },
    {
      "state_reason": "The module was garbage collected since it has failed over 180 day(s) ago",
      "tasks": {
        "rpms": {
          "ed": {
            "state": 1,
            "nvr": "ed-1.14.1-4.el8+358b0c17",
            "task_id": 14146599,
            "state_reason": ""
          },
          "module-build-macros": {
            "state": 1,
            "nvr": "module-build-macros-0.1-1.el8+358b0c17",
            "task_id": 14146061,
            "state_reason": "Build already exists."
          },
          "mksh": {
            "state": 3,
            "nvr": "mksh-None-None",
            "task_id": 14146689,
            "state_reason": "Failed to build artifact mksh in Koji"
          }
        }
      },
      "name": "testmodule",
      "stream": "rhel-8.0",
      "time_submitted": "2017-09-29T13:37:20Z",
      "version": "20170928233954",
      "time_modified": "2018-03-28T17:09:17Z",
      "state_name": "garbage",
      "scmurl": "git://git.example.com/modules/testmodule?#53d7992b6e5c154558ff7592ec455392b2c6ff77",
      "state": 6,
      "time_completed": "2017-09-29T17:02:34Z",
      "koji_tag": "module-358b0c179d25310c",
      "context": "9e5fe74b",
      "owner": "mikeb",
      "id": 1,
      "rebuild_strategy": "changed-and-after"
    }
  ],
  "meta": {
    "prev": "https://mbs.example.com/module-build-service/1/module-builds/?per_page=10&page=2&name=testmodule",
    "last": "https://mbs.example.com/module-build-service/1/module-builds/?per_page=10&page=3&name=testmodule",
    "next": null,
    "total": 27,
    "per_page": 10,
    "first": "https://mbs.example.com/module-build-service/1/module-builds/?per_page=10&page=1&name=testmodule",
    "pages": 3,
    "page": 3
  }
}